herramientas 
-------------
https://www.youtube.com/watch?v=UkKUNz006Tw

terminales
----------
https://www.youtube.com/watch?v=NzXMUJYkF5w

conectores
-----------
https://www.youtube.com/watch?v=UD7WU22Z3Ro

crimpiando
----------
https://www.youtube.com/watch?v=Tt52JeRPo7k

coneccion simple para cortados en aviones
-----------------------------------------
https://www.youtube.com/watch?v=f8DCvBV2V4M

aprendiendo conectores electricos en aviones
--------------------------------------------
https://www.youtube.com/watch?v=DVea4Io9ODA

clase cada conexion cuenta - prof.Arena
---------------------------------------
https://www.youtube.com/watch?v=iWrbmkW1D1k

Clase de  conectores - prof. Arena
-----------------------------------
https://www.youtube.com/watch?v=heHf88RMnkU









